problem set1 - sta304 a1
…
resources <- list_package_resources("80ce0bd7-adb2-4568-b9d7-712f6ba38e4e")
datastore_resources <- filter(resources, tolower(format)%in%c('xlsx','ob_report_2020'))

data <- filter(datastore_resources,row_number()==2) %>% get_resource()
data
## # A tibble: 344 x 9
##    `Institution Na… `Institution Ad… `Outbreak Setti… `Type of Outbre…
##    <chr>            <chr>            <chr>            <chr>           
##  1 Toronto Western… 399 Bathurst St  Hospital-Acute … Enteric         
##  2 Terraces of Bay… 55 Ameer Ave     Retirement Home  Respiratory     
##  3 Humber Valley T… 95 Humber Colle… LTCH             Respiratory     
##  4 Norwood Nursing… 122 Tyndall Ave  LTCH             Respiratory     
##  5 Fairview Nursin… 14 Cross St      LTCH             Respiratory     
##  6 Deerwood Creek … 70 Humberline Dr LTCH             Enteric         
##  7 Pine Villa Tran… 1035 Eglinton A… LTCH             Respiratory     
##  8 Donway Place Re… 8 The Donway E   Retirement Home  Respiratory     
##  9 Fieldstone Comm… 1000 Ellesmere … LTCH             Respiratory     
## 10 Maynard Nursing… 28 Halton St     LTCH             Respiratory     
## # … with 334 more rows, and 5 more variables: `Causative Agent - 1` <chr>,
## #   `Causative Agent - 2` <chr>, `Date Outbreak Began` <dttm>, `Date Declared
## #   Over` <dttm>, Active <chr>
…
